..........
----------------------------------------------------------------------
Ran 10 tests in 0.002s

OK
Name               Stmts   Miss Branch BrPart  Cover   Missing
--------------------------------------------------------------
Diplomacy.py         132      0     52      0   100%
TestDiplomacy.py      54      0      0      0   100%
--------------------------------------------------------------
TOTAL                186      0     52      0   100%
